^C:\YCCSAMPLE\07\SAMPLE10\SAMPLE10\SAMPLE10.CPP
C:\YCCSAMPLE\07\SAMPLE10\SAMPLE10\DEBUG\VC120.PDB
C:\YCCSAMPLE\07\SAMPLE10\SAMPLE10\DEBUG\VC120.IDB
C:\YCCSAMPLE\07\SAMPLE10\SAMPLE10\DEBUG\SAMPLE10.OBJ
