^C:\YCCSAMPLE\03\SAMPLE03\SAMPLE03\DEBUG\SAMPLE03.OBJ
C:\YCCSAMPLE\03\SAMPLE03\DEBUG\SAMPLE03.ILK
C:\YCCSAMPLE\03\SAMPLE03\DEBUG\SAMPLE03.EXE
C:\YCCSAMPLE\03\SAMPLE03\SAMPLE03\DEBUG\SAMPLE03.EXE.INTERMEDIATE.MANIFEST
C:\YCCSAMPLE\03\SAMPLE03\DEBUG\SAMPLE03.PDB
