^C:\YCCSAMPLE\04\SAMPLE04\SAMPLE04\DEBUG\SAMPLE04.OBJ
C:\YCCSAMPLE\04\SAMPLE04\DEBUG\SAMPLE04.ILK
C:\YCCSAMPLE\04\SAMPLE04\DEBUG\SAMPLE04.EXE
C:\YCCSAMPLE\04\SAMPLE04\SAMPLE04\DEBUG\SAMPLE04.EXE.INTERMEDIATE.MANIFEST
C:\YCCSAMPLE\04\SAMPLE04\DEBUG\SAMPLE04.PDB
