﻿빌드 시작: 2015-03-05 오후 6:43:45
     1>2 노드의 "C:\YCCSample\04\Sample04\Sample04\Sample04.vcxproj" 프로젝트(build 대상)입니다.
     1>PrepareForBuild:
         "C:\YCCSample\04\Sample04\Debug\" 디렉터리를 만들고 있습니다.
       InitializeBuildStatus:
         "AlwaysCreate"이(가) 지정되었기 때문에 "Debug\Sample04.unsuccessfulbuild"을(를) 만들고 있습니다.
       ClCompile:
         C:\Program Files (x86)\Microsoft Visual Studio 10.0\VC\bin\CL.exe /c /ZI /nologo /W3 /WX- /Od /Oy- /D _MBCS /Gm /EHsc /RTC1 /MDd /GS /fp:precise /Zc:wchar_t /Zc:forScope /Fo"Debug\\" /Fd"Debug\vc100.pdb" /Gd /TP /analyze- /errorReport:prompt Sample04.cpp
         Sample04.cpp
       Link:
         C:\Program Files (x86)\Microsoft Visual Studio 10.0\VC\bin\link.exe /ERRORREPORT:PROMPT /OUT:"C:\YCCSample\04\Sample04\Debug\Sample04.exe" /NOLOGO kernel32.lib user32.lib gdi32.lib winspool.lib comdlg32.lib advapi32.lib shell32.lib ole32.lib oleaut32.lib uuid.lib odbc32.lib odbccp32.lib /MANIFEST /ManifestFile:"Debug\Sample04.exe.intermediate.manifest" /MANIFESTUAC:"level='asInvoker' uiAccess='false'" /DEBUG /PDB:"C:\YCCSample\04\Sample04\Debug\Sample04.pdb" /SUBSYSTEM:CONSOLE /TLBID:1 /DYNAMICBASE /NXCOMPAT /IMPLIB:"C:\YCCSample\04\Sample04\Debug\Sample04.lib" /MACHINE:X86 Debug\Sample04.obj
         Sample04.vcxproj -> C:\YCCSample\04\Sample04\Debug\Sample04.exe
       Manifest:
         C:\Program Files (x86)\Microsoft SDKs\Windows\v7.0A\bin\mt.exe /nologo /verbose /outputresource:"C:\YCCSample\04\Sample04\Debug\Sample04.exe;#1" /manifest Debug\Sample04.exe.intermediate.manifest
       FinalizeBuildStatus:
         "Debug\Sample04.unsuccessfulbuild" 파일을 삭제하고 있습니다.
         "Debug\Sample04.lastbuildstate"에 연결(touching)하고 있습니다.
     1>"C:\YCCSample\04\Sample04\Sample04\Sample04.vcxproj" 프로젝트를 빌드했습니다(build 대상).

빌드했습니다.

경과 시간: 00:00:01.26
