^C:\YCCSAMPLE\04\SAMPLE09\SAMPLE09\SAMPLE09.CPP
C:\YCCSAMPLE\04\SAMPLE09\SAMPLE09\DEBUG\VC120.PDB
C:\YCCSAMPLE\04\SAMPLE09\SAMPLE09\DEBUG\VC120.IDB
C:\YCCSAMPLE\04\SAMPLE09\SAMPLE09\DEBUG\SAMPLE09.OBJ
